{
    "parent": "block/outer_stairs",
    "textures": {
        "bottom": "ultimaterocks:blocks/dolomite_stone_bricks",
        "top": "ultimaterocks:blocks/dolomite_stone_bricks",
        "side": "ultimaterocks:blocks/dolomite_stone_bricks"
    }
}