{
    "parent": "block/stairs",
    "textures": {
        "bottom": "ultimaterocks:blocks/gabbro_cobblestone",
        "top": "ultimaterocks:blocks/gabbro_cobblestone",
        "side": "ultimaterocks:blocks/gabbro_cobblestone"
    }
}