{
    "parent": "block/outer_stairs",
    "textures": {
        "bottom": "ultimaterocks:blocks/halite_cobblestone",
        "top": "ultimaterocks:blocks/halite_cobblestone",
        "side": "ultimaterocks:blocks/halite_cobblestone"
    }
}