{
    "parent": "block/stairs",
    "textures": {
        "bottom": "ultimaterocks:blocks/rhyolite_stone_bricks",
        "top": "ultimaterocks:blocks/rhyolite_stone_bricks",
        "side": "ultimaterocks:blocks/rhyolite_stone_bricks"
    }
}