{
    "parent": "block/inner_stairs",
    "textures": {
        "bottom": "ultimaterocks:blocks/shale_cobblestone",
        "top": "ultimaterocks:blocks/shale_cobblestone",
        "side": "ultimaterocks:blocks/shale_cobblestone"
    }
}