{
    "parent": "block/inner_stairs",
    "textures": {
        "bottom": "ultimaterocks:blocks/shale_stone_bricks",
        "top": "ultimaterocks:blocks/shale_stone_bricks",
        "side": "ultimaterocks:blocks/shale_stone_bricks"
    }
}