{
	"forge_marker": 1,
	"defaults":
	{
		"textures":
		{
			"all": "ultimaterocks:blocks/rhyolite_cobblestone"
		},
		"model": "cube_all",
		"uvlock": true
	},
	"variants":
	{
		"normal": [{}],
                "inventory": [{}]
	}
}